<?xml version="1.0" encoding="iso-8859-1"?>
<!-- Generator: Adobe Illustrator 19.0.0, SVG Export Plug-In . SVG Version: 6.00 Build 0)  -->
<svg version="1.1" id="Capa_1" xmlns="http://www.w3.org/2000/svg" xmlns:xlink="http://www.w3.org/1999/xlink" x="0px" y="0px"
	 viewBox="0 0 512 512" style="enable-background:new 0 0 512 512;" xml:space="preserve">
<path style="fill:#FDB92C;" d="M426,0H161.24c-3.978,0-7.793,1.58-10.606,4.394l-75.24,75.24C72.58,82.446,71,86.262,71,90.24V497
	c0,8.284,6.716,15,15,15h340c8.284,0,15-6.716,15-15V15C441,6.716,434.284,0,426,0z"/>
<path style="fill:#FD8E25;" d="M426,0H256v512h170c8.284,0,15-6.716,15-15V15C441,6.716,434.284,0,426,0z"/>
<g>
	<path style="fill:#FFF16C;" d="M186,211h103.787l-16.82,16.82c-5.858,5.857-5.858,15.355,0,21.213
		c5.858,5.859,15.355,5.858,21.213,0l42.424-42.424c5.948-5.944,5.733-15.489,0-21.218l-42.424-42.424
		c-5.857-5.858-15.354-5.858-21.213,0c-5.858,5.857-5.858,15.355,0,21.213l16.82,16.82H186c-8.284,0-15,6.716-15,15
		S177.716,211,186,211z"/>
	<path style="fill:#FFF16C;" d="M175.396,346.609l42.424,42.424c5.856,5.857,15.354,5.859,21.213,0
		c5.858-5.857,5.858-15.355,0-21.213L222.213,351H326c8.284,0,15-6.716,15-15s-6.716-15-15-15H222.213l16.82-16.82
		c5.858-5.857,5.858-15.355,0-21.213c-5.857-5.857-15.355-5.857-21.213,0l-42.424,42.424
		C169.623,331.157,169.485,340.706,175.396,346.609z"/>
</g>
<g>
	<path style="fill:#FDB92C;" d="M336.604,185.391l-42.424-42.424c-5.857-5.858-15.354-5.858-21.213,0
		c-5.858,5.857-5.858,15.355,0,21.213l16.82,16.82H256v30h33.787l-16.82,16.82c-5.858,5.857-5.858,15.355,0,21.213
		c5.859,5.858,15.355,5.857,21.213,0l42.424-42.424C342.552,200.665,342.337,191.12,336.604,185.391z"/>
	<path style="fill:#FDB92C;" d="M326,321h-70v30h70c8.284,0,15-6.716,15-15S334.284,321,326,321z"/>
</g>
<g>
</g>
<g>
</g>
<g>
</g>
<g>
</g>
<g>
</g>
<g>
</g>
<g>
</g>
<g>
</g>
<g>
</g>
<g>
</g>
<g>
</g>
<g>
</g>
<g>
</g>
<g>
</g>
<g>
</g>
</svg>
